<?xml version="1.0" encoding="UTF-8" standalone="no"?>
<!-- Created with Inkscape (http://www.inkscape.org/) -->

<svg
   xmlns:dc="http://purl.org/dc/elements/1.1/"
   xmlns:cc="http://creativecommons.org/ns#"
   xmlns:rdf="http://www.w3.org/1999/02/22-rdf-syntax-ns#"
   xmlns:svg="http://www.w3.org/2000/svg"
   xmlns="http://www.w3.org/2000/svg"
   xmlns:xlink="http://www.w3.org/1999/xlink"
   xmlns:sodipodi="http://sodipodi.sourceforge.net/DTD/sodipodi-0.dtd"
   xmlns:inkscape="http://www.inkscape.org/namespaces/inkscape"
   width="70mm"
   height="95mm"
   viewBox="0 0 70 95"
   version="1.1"
   id="svg2606"
   inkscape:version="0.92.3 (2405546, 2018-03-11)"
   sodipodi:docname="karta.svg">
  <defs
     id="defs2600" />
  <sodipodi:namedview
     id="base"
     pagecolor="#ffffff"
     bordercolor="#666666"
     borderopacity="1.0"
     inkscape:pageopacity="0.0"
     inkscape:pageshadow="2"
     inkscape:zoom="1.4"
     inkscape:cx="117.79246"
     inkscape:cy="184.03328"
     inkscape:document-units="mm"
     inkscape:current-layer="layer1"
     showgrid="false"
     fit-margin-top="0"
     fit-margin-left="0"
     fit-margin-right="0"
     fit-margin-bottom="0"
     inkscape:window-width="1276"
     inkscape:window-height="1020"
     inkscape:window-x="1366"
     inkscape:window-y="0"
     inkscape:window-maximized="0" />
  <metadata
     id="metadata2603">
    <rdf:RDF>
      <cc:Work
         rdf:about="">
        <dc:format>image/svg+xml</dc:format>
        <dc:type
           rdf:resource="http://purl.org/dc/dcmitype/StillImage" />
        <dc:title />
      </cc:Work>
    </rdf:RDF>
  </metadata>
  <g
     inkscape:label="Layer 1"
     inkscape:groupmode="layer"
     id="layer1"
     transform="translate(-7.157268,-96.818115)">
    <image
       sodipodi:absref="/home/petr/proj/dung/templ/elfi-bg.png"
       xlink:href="../templ/elfi-bg.png"
       y="110.60265"
       x="13.941988"
       id="image3348"
       preserveAspectRatio="none"
       height="43.63105"
       width="55.915279"
       style="stroke-width:0.0071423" />
    <image
       sodipodi:absref="/home/petr/proj/dung/kafe/kafe-karta1.png"
       xlink:href="kafe-karta1.png"
       y="110.60265"
       x="13.941988"
       id="image3348"
       preserveAspectRatio="none"
       height="43.63105"
       width="55.915279"
       style="stroke-width:0.0071423" />
    <image
       sodipodi:absref="/home/petr/proj/dung/templ/karta-text.png"
       xlink:href="../templ/karta-text.png"
       y="96.818115"
       x="7.157268"
       id="image3312"
       preserveAspectRatio="none"
       height="95"
       width="70" />
    <image
       sodipodi:absref="/home/petr/proj/dung/templ/transparent-frame.png"
       xlink:href="../templ/transparent-frame.png"
       y="96.818115"
       x="7.157268"
       id="image3312"
       preserveAspectRatio="none"
       height="95"
       width="70" />
    <text
       xml:space="preserve"
       style="font-style:italic;font-weight:bold;font-size:4.8px;
              font-family:'DejaVu Serif';text-anchor:middle"
       x="42" y="107.25">Dřevěná krabička</text>
    <flowRoot
       xml:space="preserve"
       id="flowRoot3191"
       style="font-style:normal;font-variant:normal;font-weight:normal;font-stretch:normal;font-size:9.33333302px;line-height:100%;font-family:'DejaVu Serif';-inkscape-font-specification:'DejaVu Serif, Normal';font-variant-ligatures:normal;font-variant-caps:normal;font-variant-numeric:normal;font-feature-settings:normal;text-align:start;letter-spacing:0px;word-spacing:0px;writing-mode:lr-tb;text-anchor:start;fill:#000000;fill-opacity:1;stroke:none;stroke-width:1px;stroke-linecap:butt;stroke-linejoin:miter;stroke-opacity:1"
       transform="matrix(0.26458333,0,0,0.26458333,8.407268,98.068115)"><flowRegion
         id="flowRegion3193"
         style="font-style:normal;font-variant:normal;font-weight:normal;font-stretch:normal;font-size:9.33333302px;line-height:100%;font-family:'DejaVu Serif';-inkscape-font-specification:'DejaVu Serif, Normal';font-variant-ligatures:normal;font-variant-caps:normal;font-variant-numeric:normal;font-feature-settings:normal;text-align:start;writing-mode:lr-tb;text-anchor:start"><rect
           id="rect3195"
           width="201.25526"
           height="95.836815"
           x="26.255259"
           y="226.73894"
           style="font-style:normal;font-variant:normal;font-weight:normal;font-stretch:normal;font-size:8.7px;line-height:100%;font-family:'DejaVu Serif';-inkscape-font-specification:'DejaVu Serif, Normal';font-variant-ligatures:normal;font-variant-caps:normal;font-variant-numeric:normal;font-feature-settings:normal;text-align:start;writing-mode:lr-tb;text-anchor:start" /></flowRegion><flowPara style="fill:#323232">

Zdobená krabička. Uvnitř je tmavě hnědý jemný prášek.

</flowPara><flowPara style="fill:#323232"></flowPara><flowPara style="fill:#323232"><flowSpan style="font-style:italic">Černý nápoj z tohoto prášku má sice nevábnou chuť a vůni, ale i
povzbudivé účinky a zahání ospalost.</flowSpan>

</flowPara></flowRoot>  </g>
</svg>
