<?xml version="1.0" encoding="UTF-8" standalone="no"?>
<!-- Created with Inkscape (http://www.inkscape.org/) -->

<svg
   xmlns:dc="http://purl.org/dc/elements/1.1/"
   xmlns:cc="http://creativecommons.org/ns#"
   xmlns:rdf="http://www.w3.org/1999/02/22-rdf-syntax-ns#"
   xmlns:svg="http://www.w3.org/2000/svg"
   xmlns="http://www.w3.org/2000/svg"
   xmlns:xlink="http://www.w3.org/1999/xlink"
   xmlns:sodipodi="http://sodipodi.sourceforge.net/DTD/sodipodi-0.dtd"
   xmlns:inkscape="http://www.inkscape.org/namespaces/inkscape"
   width="70mm"
   height="95mm"
   viewBox="0 0 70 95"
   version="1.1"
   id="svg2606"
   inkscape:version="0.92.3 (2405546, 2018-03-11)"
   sodipodi:docname="karta.svg">
  <defs
     id="defs2600" />
  <sodipodi:namedview
     id="base"
     pagecolor="#ffffff"
     bordercolor="#666666"
     borderopacity="1.0"
     inkscape:pageopacity="0.0"
     inkscape:pageshadow="2"
     inkscape:zoom="1.4"
     inkscape:cx="117.79246"
     inkscape:cy="184.03328"
     inkscape:document-units="mm"
     inkscape:current-layer="layer1"
     showgrid="false"
     fit-margin-top="0"
     fit-margin-left="0"
     fit-margin-right="0"
     fit-margin-bottom="0"
     inkscape:window-width="1276"
     inkscape:window-height="1020"
     inkscape:window-x="1366"
     inkscape:window-y="0"
     inkscape:window-maximized="0" />
  <metadata
     id="metadata2603">
    <rdf:RDF>
      <cc:Work
         rdf:about="">
        <dc:format>image/svg+xml</dc:format>
        <dc:type
           rdf:resource="http://purl.org/dc/dcmitype/StillImage" />
        <dc:title />
      </cc:Work>
    </rdf:RDF>
  </metadata>
  <g
     inkscape:label="Layer 1"
     inkscape:groupmode="layer"
     id="layer1"
     transform="translate(-7.157268,-96.818115)">
    <image
       sodipodi:absref="/home/petr/proj/dung/templ/elfi-bg.png"
       xlink:href="../templ/elfi-bg.png"
       y="110.60265"
       x="13.941988"
       id="image3348"
       preserveAspectRatio="none"
       height="43.63105"
       width="55.915279"
       style="stroke-width:0.0071423" />
    <image
       sodipodi:absref="/home/petr/proj/dung/moldavit/moldavit-karta2.png"
       xlink:href="moldavit-karta2.png"
       y="110.60265"
       x="13.941988"
       id="image3348"
       preserveAspectRatio="none"
       height="43.63105"
       width="55.915279"
       style="stroke-width:0.0071423" />
    <image
       sodipodi:absref="/home/petr/proj/dung/templ/elfi.png"
       xlink:href="../templ/elfi.png"
       y="96.818115"
       x="7.157268"
       id="image3312"
       preserveAspectRatio="none"
       height="95"
       width="70"
       style="stroke-width:2.58176804" />
    <text
       xml:space="preserve"
       style="font-style:italic;font-variant:normal;font-weight:bold;font-stretch:normal;font-size:5.29166651px;line-height:125%;font-family:'DejaVu Serif';-inkscape-font-specification:'DejaVu Serif, Bold Italic';font-variant-ligatures:normal;font-variant-caps:normal;font-variant-numeric:normal;font-feature-settings:normal;text-align:center;letter-spacing:0px;word-spacing:0px;writing-mode:lr-tb;text-anchor:middle;fill:#000000;fill-opacity:1;stroke:none;stroke-width:0.26458332px;stroke-linecap:butt;stroke-linejoin:miter;stroke-opacity:1"
       x="42.295071"
       y="107.90741"
       id="text3189"><tspan
         sodipodi:role="line"
         id="tspan3187"
         x="42.295071"
         y="107.90741"
         style="font-style:italic;font-variant:normal;font-weight:bold;font-stretch:normal;font-size:5.29166651px;font-family:'DejaVu Serif';-inkscape-font-specification:'DejaVu Serif, Bold Italic';font-variant-ligatures:normal;font-variant-caps:normal;font-variant-numeric:normal;font-feature-settings:normal;text-align:center;writing-mode:lr-tb;text-anchor:middle;stroke-width:0.26458332px">Moldavit</tspan></text>
    <flowRoot
       xml:space="preserve"
       id="flowRoot3191"
       style="font-style:normal;font-variant:normal;font-weight:normal;font-stretch:normal;font-size:9.33333302px;line-height:100%;font-family:'DejaVu Serif';-inkscape-font-specification:'DejaVu Serif, Normal';font-variant-ligatures:normal;font-variant-caps:normal;font-variant-numeric:normal;font-feature-settings:normal;text-align:start;letter-spacing:0px;word-spacing:0px;writing-mode:lr-tb;text-anchor:start;fill:#000000;fill-opacity:1;stroke:none;stroke-width:1px;stroke-linecap:butt;stroke-linejoin:miter;stroke-opacity:1"
       transform="matrix(0.26458333,0,0,0.26458333,8.407268,98.068115)"><flowRegion
         id="flowRegion3193"
         style="font-style:normal;font-variant:normal;font-weight:normal;font-stretch:normal;font-size:9.33333302px;line-height:100%;font-family:'DejaVu Serif';-inkscape-font-specification:'DejaVu Serif, Normal';font-variant-ligatures:normal;font-variant-caps:normal;font-variant-numeric:normal;font-feature-settings:normal;text-align:start;writing-mode:lr-tb;text-anchor:start"><rect
           id="rect3195"
           width="201.25526"
           height="95.836815"
           x="26.255259"
           y="226.73894"
           style="font-style:normal;font-variant:normal;font-weight:normal;font-stretch:normal;font-size:8.7px;line-height:100%;font-family:'DejaVu Serif';-inkscape-font-specification:'DejaVu Serif, Normal';font-variant-ligatures:normal;font-variant-caps:normal;font-variant-numeric:normal;font-feature-settings:normal;text-align:start;writing-mode:lr-tb;text-anchor:start" /></flowRegion><flowPara>Průsvitný, zelený, přibližně pětikarátový krystal moldavitu o hraně asi
centimetr.

</flowPara><flowPara></flowPara><flowPara>Připoután a vložen do připravovaného lektvaru způsobí, že dotyčný
lektvar vydrží tak dlouho, dokud je kámen připoután. Efekt lektvaru zůstane
nezměněný, změní se pouze expirační doba lektvaru.</flowPara></flowRoot>  </g>
</svg>
